Title,Author,Sex,total words,first person pronouns,third person pronouns,,ratio fp to tp,% fp of total words,,first person,notes:
Pride and Prejudice,Jane Austen,f,142454,3720,9038,,"0,4115954857","2,611369284",,FALSE,
Frankenstein,Mary Wollstonecraft Shelley,f,85341,5994,2565,,"2,336842105","7,023587725",,TRUE,
The Yellow Wallpaper,Charlotte Perkins Gilman,f,7137,453,164,,"2,762195122","6,347204708",,TRUE,
Jane Eyre,Charlotte Bronte,f,228759,12315,8443,,"1,458604761","5,383394752",,TRUE,
Wuthering Heights,Emily Bronte,f,141994,6719,8111,,"0,8283812107","4,73189008",,TRUE,
Little Women,Louisa May Alcott,f,225944,6620,11048,,"0,5992034757","2,92992954",,FALSE,narrator sometimes refers to him/herself and the reader as I or we
The Mysterious Affair at Styles,Agatha Christie,f,72070,2935,2668,,"1,100074963","4,072429582",,TRUE,
Abbe Mouret's Transgression,Emile Zola,f,152155,2443,10027,,"0,2436421662","1,605599553",,FALSE,
Anne of the Island,Lucy Maud Montgomery,f,98415,3379,3840,,"0,8799479167","3,433419702",,FALSE,
The Tale of Peter Rabbit,Beatrix Potter,f,1250,4,78,,"0,05128205128","0,32",,FALSE,
Alice's Adventures in Wonderland,Lewis Caroll,m,34908,739,1450,,"0,5096551724","2,116993239",,FALSE,
Heart of Darkness,Joseph Conrad,m,45719,1867,1654,,"1,128778718","4,083641374",,TRUE,
Veiled Women,Marmaduke William Pickthall,m,88334,1539,5316,,"0,289503386","1,742251002",,FALSE,
Moby Dick,Herman Melville,m,253012,4247,7869,,"0,5397127971","1,67857651",,FALSE,
The Adventures of Tom Sawyer,Mark Twain,m,87867,1566,4303,,"0,3639321404","1,782239066",,FALSE,
Grimms' Fairy Tales,Jacob Grimm and Wilhelm Grimm,m,121168,2231,8087,,"0,2758748609","1,841245213",,FALSE,
Dracula,Bram Stoker,m,190339,10162,8221,,"1,236102664","5,338895339",,TRUE,
A Tale of Two Cities,Charles Dickens,m,165539,3577,7886,,"0,4535886381","2,160820109",,FALSE,
The Adventures of Sherlock Holmes,Arthur Conan Doyle,m,125682,5661,4460,,"1,269282511","4,504224949",,TRUE,
Treasure Island,Robert Louis Stevenson,m,83810,3849,2665,,"1,444277674","4,592530724",,TRUE,
,,,,,,,,,,,
,,,,,,,,,,,
Women's total:,,,1155519,44582,55982,,"0,7963631167","3,858179744",,5,
Men's total:,,,1196378,35438,51911,,"0,6826684132","2,962107294",,4,